<define-tag pagetitle>DSA-4752-1 bind9</define-tag>
<define-tag report_date>2020-8-27</define-tag>
<define-tag secrefs>CVE-2020-8619 CVE-2020-8622 CVE-2020-8623 CVE-2020-8624 Bug#966497</define-tag>
<define-tag packages>bind9</define-tag>
<define-tag isvulnerable>yes</define-tag>
<define-tag fixed>yes</define-tag>
<define-tag fixed-section>no</define-tag>

#use wml::debian::security



</dl>
