<define-tag pagetitle>DSA-4607-1 openconnect</define-tag>
<define-tag report_date>2020-1-20</define-tag>
<define-tag secrefs>CVE-2019-16239 Bug#940871</define-tag>
<define-tag packages>openconnect</define-tag>
<define-tag isvulnerable>yes</define-tag>
<define-tag fixed>yes</define-tag>
<define-tag fixed-section>no</define-tag>

#use wml::debian::security



</dl>
