<define-tag pagetitle>DLA-1200-1 linux</define-tag>
<define-tag report_date>2017-12-10</define-tag>
<define-tag secrefs>CVE-2016-10208 CVE-2017-8824 CVE-2017-8831 CVE-2017-12190 CVE-2017-13080 CVE-2017-14051 CVE-2017-15115 CVE-2017-1526 CVE-2017-15299 CVE-2017-15649 CVE-2017-15868 CVE-2017-1652 CVE-2017-16527 CVE-2017-16529 CVE-2017-16531 CVE-2017-1653 CVE-2017-16533 CVE-2017-16535 CVE-2017-16536 CVE-2017-1653 CVE-2017-16643 CVE-2017-16649 CVE-2017-16939 CVE-2017-1000 Bug#865303 Bug#865416</define-tag>
<define-tag packages>linux</define-tag>
<define-tag isvulnerable>yes</define-tag>
<define-tag fixed>yes</define-tag>
<define-tag fixed-section>no</define-tag>

#use wml::debian::security

