<define-tag pagetitle>DLA-1020-1 jetty</define-tag>
<define-tag report_date>2017-7-9</define-tag>
<define-tag secrefs>CVE-2017-9735 Bug#864898</define-tag>
<define-tag packages>jetty</define-tag>
<define-tag isvulnerable>yes</define-tag>
<define-tag fixed>yes</define-tag>
<define-tag fixed-section>no</define-tag>

#use wml::debian::security

