<define-tag pagetitle>DLA-2233-1 python-django</define-tag>
<define-tag report_date>2020-06-04</define-tag>
<define-tag secrefs>CVE-2020-13254 CVE-2020-13596</define-tag>
<define-tag packages>python-django</define-tag>
<define-tag isvulnerable>yes</define-tag>
<define-tag fixed>yes</define-tag>
<define-tag fixed-section>no</define-tag>

#use wml::debian::security
