<define-tag pagetitle>DLA-2086-1 wget</define-tag>
<define-tag report_date>2020-1-29</define-tag>
<define-tag secrefs>CVE-2016-7098</define-tag>
<define-tag packages>wget</define-tag>
<define-tag isvulnerable>yes</define-tag>
<define-tag fixed>yes</define-tag>
<define-tag fixed-section>no</define-tag>

#use wml::debian::security

