<define-tag pagetitle>DLA-2092-1 qtbase-opensource-src</define-tag>
<define-tag report_date>2020-02-01</define-tag>
<define-tag secrefs>CVE-2020-0569</define-tag>
<define-tag packages>qtbase-opensource-src</define-tag>
<define-tag isvulnerable>yes</define-tag>
<define-tag fixed>yes</define-tag>
<define-tag fixed-section>no</define-tag>

#use wml::debian::security

