<define-tag pagetitle>DLA-1411-1 tiff</define-tag>
<define-tag report_date>2018-7-2</define-tag>
<define-tag secrefs>CVE-2017-11613 CVE-2018-5784 CVE-2018-7456 CVE-2018-8905 CVE-2018-10963 Bug#869823 Bug#898348 Bug#890441 Bug#891288 Bug#893806</define-tag>
<define-tag packages>tiff</define-tag>
<define-tag isvulnerable>yes</define-tag>
<define-tag fixed>yes</define-tag>
<define-tag fixed-section>no</define-tag>

#use wml::debian::security

