<define-tag pagetitle>DLA-1319-1 firefox-esr</define-tag>
<define-tag report_date>2018-3-26</define-tag>
<define-tag secrefs>CVE-2018-5146 CVE-2018-5147</define-tag>
<define-tag packages>firefox-esr</define-tag>
<define-tag isvulnerable>yes</define-tag>
<define-tag fixed>yes</define-tag>
<define-tag fixed-section>no</define-tag>

#use wml::debian::security

