<define-tag pagetitle>DLA-1305-1 ming</define-tag>
<define-tag report_date>2018-3-11</define-tag>
<define-tag secrefs>CVE-2018-5251 CVE-2018-5294 CVE-2018-6315 CVE-2018-6359</define-tag>
<define-tag packages>ming</define-tag>
<define-tag isvulnerable>yes</define-tag>
<define-tag fixed>yes</define-tag>
<define-tag fixed-section>no</define-tag>

#use wml::debian::security

