<define-tag pagetitle>DSA-4426-1 tryton-server</define-tag>
<define-tag report_date>2019-4-07</define-tag>
<define-tag secrefs>CVE-2019-10868</define-tag>
<define-tag packages>tryton-server</define-tag>
<define-tag isvulnerable>yes</define-tag>
<define-tag fixed>yes</define-tag>
<define-tag fixed-section>no</define-tag>

#use wml::debian::security



</dl>
