<define-tag pagetitle>DSA-4500-1 chromium</define-tag>
<define-tag report_date>2019-8-12</define-tag>
<define-tag secrefs>CVE-2019-5805 CVE-2019-5806 CVE-2019-5807 CVE-2019-5808 CVE-2019-5809 CVE-2019-5810 CVE-2019-5811 CVE-2019-5813 CVE-2019-5814 CVE-2019-5815 CVE-2019-5818 CVE-2019-5819 CVE-2019-5820 CVE-2019-5821 CVE-2019-5822 CVE-2019-5823 CVE-2019-5824 CVE-2019-5825 CVE-2019-5826 CVE-2019-5827 CVE-2019-5828 CVE-2019-5829 CVE-2019-5830 CVE-2019-5831 CVE-2019-5832 CVE-2019-5833 CVE-2019-5834 CVE-2019-5836 CVE-2019-5837 CVE-2019-5838 CVE-2019-5839 CVE-2019-5840 CVE-2019-5842 CVE-2019-5847 CVE-2019-5848 CVE-2019-5849 CVE-2019-5850 CVE-2019-5851 CVE-2019-5852 CVE-2019-5853 CVE-2019-5854 CVE-2019-5855 CVE-2019-5856 CVE-2019-5857 CVE-2019-5858 CVE-2019-5859 CVE-2019-5860 CVE-2019-5861 CVE-2019-5862 CVE-2019-5864 CVE-2019-5865 CVE-2019-5867 CVE-2019-5868</define-tag>
<define-tag packages>chromium</define-tag>
<define-tag isvulnerable>yes</define-tag>
<define-tag fixed>yes</define-tag>
<define-tag fixed-section>no</define-tag>

#use wml::debian::security



</dl>
