<define-tag pagetitle>DSA-4365-1 tmpreaper</define-tag>
<define-tag report_date>2019-1-10</define-tag>
<define-tag secrefs>CVE-2019-3461</define-tag>
<define-tag packages>tmpreaper</define-tag>
<define-tag isvulnerable>yes</define-tag>
<define-tag fixed>yes</define-tag>
<define-tag fixed-section>no</define-tag>

#use wml::debian::security



</dl>
