<define-tag pagetitle>DLA-1939-1 poppler</define-tag>
<define-tag report_date>2019-9-30</define-tag>
<define-tag secrefs>CVE-2018-20650 CVE-2018-21009 CVE-2019-12493</define-tag>
<define-tag packages>poppler</define-tag>
<define-tag isvulnerable>yes</define-tag>
<define-tag fixed>yes</define-tag>
<define-tag fixed-section>no</define-tag>

#use wml::debian::security

