<define-tag pagetitle>DLA-1778-1 symfony</define-tag>
<define-tag report_date>2019-05-06</define-tag>
<define-tag secrefs>CVE-2019-10909 CVE-2019-10910 CVE-2019-10911 CVE-2019-10913</define-tag>
<define-tag packages>symfony</define-tag>
<define-tag isvulnerable>yes</define-tag>
<define-tag fixed>yes</define-tag>
<define-tag fixed-section>no</define-tag>

#use wml::debian::security

