<define-tag pagetitle>DLA-2031-1 freeimage</define-tag>
<define-tag report_date>2019-12-10</define-tag>
<define-tag secrefs>CVE-2019-12211 CVE-2019-12213 Bug#929597</define-tag>
<define-tag packages>freeimage</define-tag>
<define-tag isvulnerable>yes</define-tag>
<define-tag fixed>yes</define-tag>
<define-tag fixed-section>no</define-tag>

#use wml::debian::security

