<define-tag pagetitle>DLA-1936-1 cups</define-tag>
<define-tag report_date>2019-9-28</define-tag>
<define-tag secrefs>CVE-2018-4300</define-tag>
<define-tag packages>cups</define-tag>
<define-tag isvulnerable>yes</define-tag>
<define-tag fixed>yes</define-tag>
<define-tag fixed-section>no</define-tag>

#use wml::debian::security

