<define-tag pagetitle>DLA-1630-1 libav</define-tag>
<define-tag report_date>2019-1-7</define-tag>
<define-tag secrefs>CVE-2017-9993 CVE-2017-9994 CVE-2017-14055 CVE-2017-14056 CVE-2017-14057 CVE-2017-14170 CVE-2017-14171 CVE-2017-14767 CVE-2017-15672 CVE-2017-17130 CVE-2018-6621 CVE-2018-7557 CVE-2018-14394 CVE-2018-1999010</define-tag>
<define-tag packages>libav</define-tag>
<define-tag isvulnerable>yes</define-tag>
<define-tag fixed>yes</define-tag>
<define-tag fixed-section>no</define-tag>

#use wml::debian::security

