<define-tag pagetitle>DLA-619-1 qemu-kvm</define-tag>
<define-tag report_date>2016-9-11</define-tag>
<define-tag secrefs>CVE-2016-7116</define-tag>
<define-tag packages>qemu-kvm</define-tag>
<define-tag isvulnerable>yes</define-tag>
<define-tag fixed>yes</define-tag>
<define-tag fixed-section>no</define-tag>

#use wml::debian::security

