<define-tag pagetitle>DLA-735-1 gst-plugins-base0.10</define-tag>
<define-tag report_date>2016-12-8</define-tag>
<define-tag secrefs>CVE-2016-9811</define-tag>
<define-tag packages>gst-plugins-base0.10</define-tag>
<define-tag isvulnerable>yes</define-tag>
<define-tag fixed>yes</define-tag>
<define-tag fixed-section>no</define-tag>

#use wml::debian::security

