<define-tag pagetitle>DLA-505-1 libpdfbox-java</define-tag>
<define-tag report_date>2016-6-8</define-tag>
<define-tag secrefs>CVE-2016-2175</define-tag>
<define-tag packages>libpdfbox-java</define-tag>
<define-tag isvulnerable>yes</define-tag>
<define-tag fixed>yes</define-tag>
<define-tag fixed-section>no</define-tag>

#use wml::debian::security

